{
    "chrome": {
        "default": "102.0",
 	"versions": {
            "101.0": {
                "image": "selenoid/chrome:101.0",
                "port": "4444",
                "path": "/"
            },
            "102.0": {
                "image": "selenoid/chrome:102.0",
                "port": "4444",
                "path": "/"
            }
        }
    },
    "firefox": {
        "default": "100.0",
        "versions": {
            "100.0": {
                "image": "selenoid/firefox:100.0",
                "port": "4444",
                "path": "/wd/hub"
            },
            "99.0": {
                "image": "selenoid/firefox:99.0",
                "port": "4444",
                "path": "/wd/hub"
            }
        }
    },
    "opera": {
        "default": "86.0",
        "versions": {
            "85.0": {
                "image": "selenoid/opera:85.0",
                "port": "4444",
                "path": "/"
            },
            "86.0": {
                "image": "selenoid/opera:86.0",
                "port": "4444",
                "path": "/"
            }
        }
    }
}
